<?xml version="1.0" encoding="utf-8"?>
<!-- Generator: Adobe Illustrator 21.0.0, SVG Export Plug-In . SVG Version: 6.00 Build 0)  -->
<svg version="1.1" id="Слой_1" xmlns="http://www.w3.org/2000/svg" xmlns:xlink="http://www.w3.org/1999/xlink" x="0px" y="0px"
	 viewBox="0 0 73.4 67.7" style="enable-background:new 0 0 73.4 67.7;" xml:space="preserve">
<style type="text/css">
	.st0{fill:#009BAD;}
</style>
<g>
	<g>
		<g>
			<path class="st0" d="M62.2,16.6h-9.5c-0.9,0-1.6,0.7-1.6,1.6s0.7,1.6,1.6,1.6h5.5l-8.1,8.1l-2.7-2.6c-1.3-1.3-3.2-1.3-4.5,0
				L29.5,38.7L25,34.2c-1.2-1.2-3.3-1.2-4.5,0L12.7,42c-0.6,0.6-0.6,1.6,0,2.2c0.3,0.3,0.7,0.5,1.1,0.5s0.8-0.2,1.1-0.5l7.8-7.8
				l5.7,5.7c0.6,0.6,1.6,0.6,2.2,0l14.5-14.5l3.8,3.7c0.6,0.6,1.6,0.6,2.2,0l9.4-9.4v5.8c0,0.9,0.7,1.6,1.6,1.6
				c0.9,0,1.6-0.7,1.6-1.6v-9.5C63.8,17.3,63.1,16.6,62.2,16.6z"/>
			<path class="st0" d="M65.4,0.7H8c-4.4,0-8,3.6-8,8v51c0,4.4,3.6,8,8,8h57.4c4.4,0,8-3.6,8-8v-51C73.4,4.3,69.8,0.7,65.4,0.7z
				 M70.2,59.7c0,2.6-2.2,4.8-4.8,4.8H8c-2.6,0-4.8-2.2-4.8-4.8v-51C3.2,6,5.3,3.9,8,3.9h57.4c2.6,0,4.8,2.2,4.8,4.8V59.7z"/>
			<path class="st0" d="M8.9,45.8l-1.6,1.6c-0.6,0.6-0.6,1.6,0,2.2C7.6,50,8,50.1,8.4,50.1c0.4,0,0.8-0.2,1.1-0.5l1.6-1.6
				c0.6-0.6,0.6-1.6,0-2.2C10.4,45.2,9.5,45.2,8.9,45.8z"/>
		</g>
	</g>
</g>
</svg>
