<?xml version="1.0" encoding="utf-8"?>
<!-- Generator: Adobe Illustrator 16.0.2, SVG Export Plug-In . SVG Version: 6.00 Build 0)  -->
<!DOCTYPE svg PUBLIC "-//W3C//DTD SVG 1.1//EN" "http://www.w3.org/Graphics/SVG/1.1/DTD/svg11.dtd">
<svg version="1.1" id="Слой_1" xmlns="http://www.w3.org/2000/svg" xmlns:xlink="http://www.w3.org/1999/xlink" x="0px" y="0px"
	 width="20px" height="20px" viewBox="0 0 20 20" enable-background="new 0 0 20 20" xml:space="preserve">
<path fill="#1F282C" d="M19.261,18.145l-4.565-4.565c1.132-1.379,1.813-3.146,1.813-5.072c0-4.418-3.584-8.002-8.002-8.002
	c-4.421,0-8.002,3.584-8.002,8.002c0,4.418,3.581,8.002,8.002,8.002c1.926,0,3.689-0.678,5.069-1.81l4.564,4.561
	c0.31,0.31,0.81,0.31,1.12,0C19.571,18.956,19.571,18.452,19.261,18.145z M8.508,14.918c-3.538,0-6.413-2.875-6.413-6.409
	c0-3.534,2.875-6.413,6.413-6.413c3.534,0,6.413,2.879,6.413,6.413C14.921,12.042,12.042,14.918,8.508,14.918z"/>
</svg>
