<?xml version="1.0" encoding="utf-8"?>
<!-- Generator: Adobe Illustrator 21.0.0, SVG Export Plug-In . SVG Version: 6.00 Build 0)  -->
<svg version="1.1" id="Слой_1" xmlns="http://www.w3.org/2000/svg" xmlns:xlink="http://www.w3.org/1999/xlink" x="0px" y="0px"
	 viewBox="0 0 38.8 63" style="enable-background:new 0 0 38.8 63;" xml:space="preserve">
<style type="text/css">
	.st0{fill:#009BAD;}
</style>
<g>
	<g>
		<path class="st0" d="M32.3,6.1c-3.6-3.6-8-5.3-13.1-5.3S9.7,2.6,6.1,6.1S0.7,14,0.7,19c0,3,1.5,8.1,4.6,15.3
			c3.1,7.1,6.2,13.6,9.3,19.5s4.6,8.7,4.6,8.5c0.5-0.9,1.1-2.1,2-3.6c0.8-1.5,2.3-4.4,4.4-8.6s4-8.1,5.6-11.6
			c1.6-3.5,3.1-7.2,4.4-10.9c1.4-3.8,2-6.6,2-8.5C37.7,14,35.9,9.7,32.3,6.1z M23.2,22.9c-1.1,1.1-2.5,1.7-4,1.7
			c-1.6,0-2.9-0.6-4-1.7c-1.1-1.1-1.7-2.5-1.7-4s0.6-2.9,1.7-4s2.5-1.6,4-1.6c1.6,0,2.9,0.5,4,1.6c1.1,1.1,1.7,2.4,1.7,4
			S24.3,21.8,23.2,22.9z"/>
	</g>
</g>
</svg>
