<?xml version="1.0" encoding="utf-8"?>
<!-- Generator: Adobe Illustrator 21.0.0, SVG Export Plug-In . SVG Version: 6.00 Build 0)  -->
<svg version="1.1" id="Слой_1" xmlns="http://www.w3.org/2000/svg" xmlns:xlink="http://www.w3.org/1999/xlink" x="0px" y="0px"
	 viewBox="0 0 66.3 65.9" style="enable-background:new 0 0 66.3 65.9;" xml:space="preserve">
<style type="text/css">
	.st0{fill:#009BAD;}
</style>
<g>
	<path class="st0" d="M33.6,65c-4.5,0-8.7-0.8-12.7-2.6c-0.9-0.3-1.3-1.4-1-2.4c0.2-0.7,0.9-1.1,1.6-1.1c0.3,0,0.5,0,0.8,0.1
		c3.7,1.6,7.4,2.3,11.2,2.3c15.7,0,28.5-12.8,28.5-28.5S49.3,4.5,33.6,4.5C20,4.5,8.2,14.1,5.6,27.3c-0.2,0.9-0.3,1.7-0.3,2.2
		c-0.1,1-0.3,2.2-0.3,3.4c0,7.5,2.9,14.5,8.1,19.9c0.3,0.3,0.5,0.8,0.5,1.3c0,0.5-0.2,0.9-0.5,1.2c-0.3,0.3-0.8,0.5-1.2,0.5
		s-0.9-0.2-1.2-0.5c-5.8-6.1-9-14-9-22.4c0-1.4,0.1-2.7,0.3-3.9c0.1-0.8,0.3-1.6,0.4-2.6c2.8-14.9,16-25.7,31.3-25.7
		c17.7,0,32.1,14.4,32.1,32.1C65.6,50.6,51.2,65,33.6,65z"/>
	<path class="st0" d="M13.3,64.5c-3.5,0-7-0.9-10.1-2.7c-0.4-0.2-0.7-0.6-0.8-1.1c-0.1-0.5,0-1,0.2-1.4c0.3-0.6,0.9-0.9,1.5-0.9
		c0.3,0,0.7,0.1,1,0.3c2.4,1.4,5.2,2.2,8.3,2.2c2.7,0,5.2-0.6,7.4-1.8c0.2-0.1,0.5-0.2,0.8-0.2c0.7,0,1.3,0.4,1.6,1.1
		c0.2,0.4,0.3,0.8,0.1,1.3c-0.1,0.5-0.5,0.9-1,1.1C19.7,63.8,16.7,64.5,13.3,64.5z"/>
	<path class="st0" d="M4.2,62c-0.7,0-1.3-0.4-1.7-1.1c-0.4-1,0-1.9,1-2.4c2.8-1.2,5.1-3.1,6.9-5.6c0.4-0.5,0.9-0.8,1.5-0.8
		c0.4,0,0.7,0.1,1,0.3c0.9,0.6,1.1,1.7,0.5,2.5c-2.2,3.1-5.1,5.5-8.3,7C4.7,62,4.5,62,4.2,62z"/>
	<circle class="st0" cx="33.6" cy="32.8" r="3.6"/>
	<circle class="st0" cx="48.1" cy="32.8" r="3.6"/>
	<circle class="st0" cx="18.9" cy="32.8" r="3.6"/>
</g>
</svg>
