<?xml version="1.0" encoding="utf-8"?>
<!-- Generator: Adobe Illustrator 21.0.0, SVG Export Plug-In . SVG Version: 6.00 Build 0)  -->
<svg version="1.1" id="Слой_1" xmlns="http://www.w3.org/2000/svg" xmlns:xlink="http://www.w3.org/1999/xlink" x="0px" y="0px"
	 viewBox="0 0 19.4 24.9" style="enable-background:new 0 0 19.4 24.9;" xml:space="preserve">
<style type="text/css">
	.st0{fill:#009BAD;stroke:#019BAC;stroke-width:0.5;stroke-miterlimit:10;}
</style>
<g>
	<g>
		<path class="st0" d="M15.3,16.1c0,0-2.8,0.1-3.2-2.9c0.5-0.3,0.9-0.7,1.3-1.2c0.7-1,1.2-2.2,1.4-3.5c0.1-0.1,0.1-0.1,0.1-0.2
			c0.3-0.7,0.5-1.5,0.5-2.3c0-3-2.3-5.5-5.1-5.5C9.4,0.4,8.7,0.6,8,0.9C7.8,0.9,7.5,1,7.3,1C6.1,1.4,5.2,2.2,4.6,3.5
			C4.1,4.6,4,6,4.3,7.4C4.4,7.7,4.5,8,4.6,8.2c0,0.1,0.1,0.1,0.1,0.2C5,10.5,6,12.2,7.3,13.2c-0.4,3-3.2,2.9-3.2,2.9
			c-2,0.1-3.6,1.7-3.6,3.7V24c0,0.3,0.2,0.5,0.5,0.5h4.8h7.7h4.8c0.3,0,0.5-0.2,0.5-0.5v-4.2C18.9,17.8,17.3,16.1,15.3,16.1z
			 M7.6,2.1C7.8,2,8,2,8.2,2c0.1,0,0.2,0,0.2-0.1C9,1.6,9.6,1.5,10.2,1.5c2.2,0,4,2,4,4.4c0,0.1,0,0.1,0,0.2c-0.4-0.4-1-0.7-1.7-0.7
			H8.8c-0.2,0-0.4-0.1-0.6-0.2C8,5.1,7.9,5,7.9,4.8C7.8,4.5,7.5,4.4,7.2,4.4c-0.3,0-0.5,0.2-0.6,0.5C6.4,5.7,6,6.5,5.4,7.1
			C4.8,4.8,5.8,2.6,7.6,2.1z M7.1,11.5c-0.7-0.9-1.2-2-1.3-3.3C6.5,7.6,7,6.8,7.4,6C7.4,6,7.5,6,7.5,6.1c0.4,0.3,0.8,0.4,1.3,0.4
			h3.7c0.5,0,1,0.3,1.2,0.8c0,0,0,0,0,0c0,3.1-1.8,5.6-4,5.6C8.8,12.8,7.8,12.4,7.1,11.5z M8.4,13.7c0.4,0.2,0.9,0.2,1.3,0.2
			c0.5,0,0.9-0.1,1.3-0.2c0.2,1,0.8,1.9,1.6,2.6l-2.8,4.1c0,0,0,0-0.1,0c0,0-0.1,0-0.1,0l-2.9-4.1C7.6,15.6,8.2,14.7,8.4,13.7z
			 M17.8,23.4h-4.2H5.8H1.6v-3.6c0-1.5,1.2-2.6,2.6-2.6c0,0,0.9,0,1.6-0.3l2.9,4.1c0.2,0.3,0.6,0.5,1,0.5h0c0.4,0,0.7-0.2,1-0.5
			l2.9-4.1c0.8,0.3,1.6,0.3,1.6,0.3c1.5,0,2.6,1.2,2.6,2.6L17.8,23.4z"/>
	</g>
</g>
</svg>
